…
``` r
meta <- read.delim("../meta/Sp_Radseq_Files_Guide.txt") %>% select(Urchin, Sex)
ind_miss_join <- left_join(ind_miss,meta,by=c("ind"="Urchin"))

ind_miss %>% arrange(desc(fmiss))
```

    ## # A tibble: 28 x 5
    ##    ind   ndata nfiltered nmiss fmiss
    ##    <chr> <dbl>     <dbl> <dbl> <dbl>
    ##  1 Spf42 10401         0  9113 0.876
    ##  2 Spf14 10401         0  6618 0.636
    ##  3 Spf45 10401         0  6222 0.598
    ##  4 Spf43 10401         0  4941 0.475
    ##  5 Spf13 10401         0  4629 0.445
    ##  6 Spf12 10401         0  3665 0.352
    ##  7 Spf26 10401         0  2775 0.267
    ##  8 Spf44 10401         0  2482 0.239
    ##  9 Spf6  10401         0  1217 0.117
    ## 10 Spf18 10401         0  1184 0.114
    ## # ... with 18 more rows
…
    ## 
    ## -- Column specification --------------------------------------------------------
    ## cols(
    ##   ind = col_character(),
    ##   nsites = col_double(),
    ##   depth = col_double()
    ## )

``` r
ind_depth %>% arrange(depth)
```

    ## # A tibble: 48 x 4
    ##    ind   nsites depth Sex   
    ##    <chr>  <dbl> <dbl> <chr> 
    ##  1 Spf14   3783  1.95 Female
    ##  2 Spf13   5772  2.18 Female
    ##  3 Spf26   7626  3.07 Female
    ##  4 Spf12   6736  4.06 Female
    ##  5 Spf18   9217  4.81 Female
    ##  6 Spf18   9217  4.81 Female
    ##  7 Spf25   9329  5.17 Female
    ##  8 Spf25   9329  5.17 Female
    ##  9 Spf6    9184  5.47 Female
    ## 10 Spf6    9184  5.47 Female
    ## # ... with 38 more rows

``` r
ind_depth %>% arrange(desc(depth))
```

    ## # A tibble: 48 x 4
    ##    ind   nsites depth Sex  
    ##    <chr>  <dbl> <dbl> <chr>
    ##  1 Spm3   10275  142. Male 
    ##  2 Spm3   10275  142. Male 
    ##  3 Spm4   10253  130. Male 
    ##  4 Spm4   10253  130. Male 
    ##  5 Spm8   10271  124. Male 
    ##  6 Spm8   10271  124. Male 
    ##  7 Spm16  10286  123. Male 
    ##  8 Spm16  10286  123. Male 
    ##  9 Spm11  10327  117. Male 
    ## 10 Spm11  10327  117. Male 
    ## # ... with 38 more rows
…
